decodet2to4/simulation/qsim/decode2to4.msim.vcd
$comment
	File created using the following command:
		vcd file decode2to4.msim.vcd -direction
$end
$date
	Thu Apr 16 20:42:44 2020
$end
$version
	ModelSim Version 10.1d
$end
$timescale
	1ps
$end
$scope module decode2to4_vlg_vec_tst $end
$var reg 1 ! A1 $end
$var reg 1 " A2 $end
$var reg 1 # Ena $end
$var wire 1 $ Y [3] $end
$var wire 1 % Y [2] $end
$var wire 1 & Y [1] $end
$var wire 1 ' Y [0] $end
$var wire 1 ( sampler $end
$scope module i1 $end
$var wire 1 ) gnd $end
$var wire 1 * vcc $end
$var wire 1 + unknown $end
$var tri1 1 , devclrn $end
$var tri1 1 - devpor $end
$var tri1 1 . devoe $end
$var wire 1 / Ena~combout $end
$var wire 1 0 A2~combout $end
$var wire 1 1 A1~combout $end
$var wire 1 2 nd1~combout $end
$var wire 1 3 nd2~combout $end
$var wire 1 4 nd3~combout $end
$var wire 1 5 nd4~combout $end
$upscope $end
$upscope $end
$enddefinitions $end
#0
$dumpvars
0!
0"
0#
1'
1&
1%
1$
x(
0)
1*
x+
1,
1-
1.
0/
00
01
02
03
04
05
$end
#80000
1#
1/
0(
12
0'
#120000
1!
1"
11
10
1(
15
02
0$
1'
#220000
0!
0"
01
00
0(
05
12
1$
0'
#280000
1!
11
1(
14
02
0%
1'
#410000
0!
01
0(
04
12
1%
0'
#460000
1"
10
1(
13
02
0&
1'
#580000
0"
00
0(
03
12
1&
0'
#740000
0#
0/
1(
02
1'
