counter18/simulation/qsim/counter18.msim.vcd
$comment
	File created using the following command:
		vcd file counter18.msim.vcd -direction
$end
$date
	Tue Apr 21 19:07:52 2020
$end
$version
	ModelSim Version 10.1d
$end
$timescale
	1ps
$end
$scope module counter18_vlg_vec_tst $end
$var reg 1 ! clk $end
$var reg 1 " clr $end
$var reg 5 # data [4:0] $end
$var reg 1 $ ld $end
$var wire 1 % counter [4] $end
$var wire 1 & counter [3] $end
$var wire 1 ' counter [2] $end
$var wire 1 ( counter [1] $end
$var wire 1 ) counter [0] $end
$var wire 1 * sampler $end
$scope module i1 $end
$var wire 1 + gnd $end
$var wire 1 , vcc $end
$var wire 1 - unknown $end
$var tri1 1 . devclrn $end
$var tri1 1 / devpor $end
$var tri1 1 0 devoe $end
$var wire 1 1 clk~combout $end
$var wire 1 2 clk~clkctrl_outclk $end
$var wire 1 3 ld~combout $end
$var wire 1 4 Add0~1 $end
$var wire 1 5 Add0~3 $end
$var wire 1 6 Add0~4_combout $end
$var wire 1 7 counter~5_combout $end
$var wire 1 8 clr~combout $end
$var wire 1 9 clr~clkctrl_outclk $end
$var wire 1 : counter[2]~reg0_regout $end
$var wire 1 ; Add0~5 $end
$var wire 1 < Add0~6_combout $end
$var wire 1 = counter~6_combout $end
$var wire 1 > counter[3]~reg0_regout $end
$var wire 1 ? counter~0_combout $end
$var wire 1 @ counter~3_combout $end
$var wire 1 A Add0~7 $end
$var wire 1 B Add0~8_combout $end
$var wire 1 C counter~7_combout $end
$var wire 1 D counter[4]~reg0_regout $end
$var wire 1 E counter~1_combout $end
$var wire 1 F Add0~0_combout $end
$var wire 1 G counter~2_combout $end
$var wire 1 H counter[0]~reg0_regout $end
$var wire 1 I Add0~2_combout $end
$var wire 1 J counter~4_combout $end
$var wire 1 K counter[1]~reg0_regout $end
$var wire 1 L data~combout [4] $end
$var wire 1 M data~combout [3] $end
$var wire 1 N data~combout [2] $end
$var wire 1 O data~combout [1] $end
$var wire 1 P data~combout [0] $end
$upscope $end
$upscope $end
$enddefinitions $end
#0
$dumpvars
1!
0"
b0 #
0$
0)
0(
0'
0&
0%
x*
0+
1,
x-
1.
1/
10
11
12
03
04
15
06
07
08
09
0:
0;
0<
0=
0>
0?
0@
1A
0B
0C
0D
1E
1F
1G
0H
0I
0J
0K
0P
0O
0N
0M
0L
$end
#20000
0!
01
02
0*
#40000
1!
11
12
1*
1H
1?
14
0F
1)
0G
1I
1J
#60000
0!
01
02
0*
#80000
1!
11
12
1*
1K
0H
05
0I
04
1F
1(
0)
16
0J
15
1I
1G
17
06
1J
07
#100000
0!
01
02
0*
#120000
1!
11
12
1*
1H
14
0F
1)
05
0I
0G
16
0J
17
#140000
0!
01
02
0*
#160000
1!
11
12
1*
0K
0H
1:
15
1I
04
1F
1;
06
0(
0)
1'
0;
16
1J
0I
1G
1<
07
0<
17
0J
1=
0=
#180000
0!
01
02
0*
#200000
1!
11
12
1*
1H
14
0F
1)
1I
0G
1J
#220000
0!
01
02
0*
#240000
1!
11
12
1*
1K
0H
05
0I
04
1F
1(
0)
1;
06
0J
15
1I
1G
1<
07
0;
16
1J
1=
0<
17
0=
#260000
0!
01
02
0*
#280000
1!
11
12
1*
1H
14
0F
1)
05
0I
0G
1;
06
0J
1<
07
1=
#300000
0!
01
02
0*
#320000
1!
11
12
1*
0K
0H
1>
0:
15
1I
04
1F
0A
0<
0;
16
0(
0)
1&
0'
06
1J
0I
1G
1B
0=
1A
1<
17
07
0J
1C
0B
1=
0C
#340000
0!
01
02
0*
#360000
1!
11
12
1*
1H
14
0F
1)
1I
0G
1J
#380000
0!
01
02
0*
#400000
1!
11
12
1*
1K
0H
05
0I
04
1F
1(
0)
16
0J
15
1I
1G
17
06
1J
07
#420000
0!
01
02
0*
#440000
1!
11
12
1*
1H
14
0F
1)
05
0I
0G
16
0J
17
#460000
0!
01
02
0*
#480000
1!
11
12
1*
0K
0H
1:
15
1I
04
1F
1;
06
0(
0)
1'
0;
16
1J
0I
1G
0A
0<
07
1A
1<
17
0J
1B
0=
0B
1=
1C
0C
#500000
0!
01
02
0*
#520000
1!
11
12
1*
1H
14
0F
1)
1I
0G
1J
#540000
0!
01
02
0*
#560000
1!
11
12
1*
1K
0H
05
0I
04
1F
1(
0)
1;
06
0J
15
1I
1G
0A
0<
07
0;
16
1J
1B
0=
1A
1<
17
1C
0B
1=
0C
#580000
0!
01
02
0*
#600000
1!
11
12
1*
1H
14
0F
1)
05
0I
0G
1;
06
0J
0A
0<
07
1B
0=
1C
#620000
0!
01
02
0*
#640000
1!
11
12
1*
0K
0H
1D
0>
0:
0?
15
1I
04
1F
0E
0B
1@
1A
1<
0;
16
0(
0)
1%
0&
0'
1G
0@
06
0I
0C
1B
0<
1C
#660000
0!
01
02
0*
#680000
1!
11
12
1*
1H
1?
14
0F
1)
0G
1@
1I
0C
#700000
0!
01
02
0*
#720000
1!
11
12
1*
0H
0D
0?
04
1F
1E
0B
0@
0)
0%
1G
0I
1J
0J
#740000
0!
01
02
0*
#760000
1!
11
12
1*
1H
1?
14
0F
1)
0G
1I
1J
#780000
0!
01
02
0*
#800000
1!
11
12
1*
1K
0H
05
0I
04
1F
1(
0)
16
0J
15
1I
1G
17
06
1J
07
#810000
1"
18
19
0*
0K
0?
0I
0(
0J
#820000
0!
01
02
1*
#840000
1!
11
12
0*
#860000
0"
0!
08
01
02
09
1*
#880000
1!
11
12
0*
1H
1?
14
0F
1)
0G
1I
1J
#890000
1$
13
1*
1G
0E
1@
0G
0J
#900000
0!
01
02
0*
#920000
1!
11
12
1*
0H
0?
04
1F
0)
0I
#940000
0!
01
02
0*
#960000
0$
03
1*
1G
1E
0@
